{
	"info": {
		"_postman_id": "c5d46524-9ce4-494e-a03c-1feb5365c808",
		"name": "asabix",
		"schema": "https://schema.getpostman.com/json/collection/v2.1.0/collection.json",
		"_exporter_id": "230882"
	},
	"item": [
		{
			"name": "tags - index",
			"request": {
				"method": "GET",
				"header": [],
				"url": {
					"raw": "{{host}}/api/tags",
					"host": [
						"{{host}}"
					],
					"path": [
						"api",
						"tags"
					]
				}
			},
			"response": []
		},
		{
			"name": "tags - show",
			"request": {
				"method": "GET",
				"header": [],
				"url": {
					"raw": "{{host}}/api/tags/3",
					"host": [
						"{{host}}"
					],
					"path": [
						"api",
						"tags",
						"3"
					]
				}
			},
			"response": []
		},
		{
			"name": "tags - store",
			"request": {
				"method": "POST",
				"header": [],
				"body": {
					"mode": "raw",
					"raw": "{\n    \"name\": \"new tag\"\n}",
					"options": {
						"raw": {
							"language": "json"
						}
					}
				},
				"url": {
					"raw": "{{host}}/api/tags/",
					"host": [
						"{{host}}"
					],
					"path": [
						"api",
						"tags",
						""
					]
				}
			},
			"response": []
		},
		{
			"name": "tags - update",
			"request": {
				"method": "PUT",
				"header": [],
				"body": {
					"mode": "raw",
					"raw": "{\n    \"id\": 5,\n    \"name\": \"new updated tag\"\n}",
					"options": {
						"raw": {
							"language": "json"
						}
					}
				},
				"url": {
					"raw": "{{host}}/api/tags/5",
					"host": [
						"{{host}}"
					],
					"path": [
						"api",
						"tags",
						"5"
					]
				}
			},
			"response": []
		},
		{
			"name": "tags - destroy",
			"request": {
				"method": "DELETE",
				"header": [],
				"body": {
					"mode": "raw",
					"raw": "",
					"options": {
						"raw": {
							"language": "json"
						}
					}
				},
				"url": {
					"raw": "{{host}}/api/tags/6",
					"host": [
						"{{host}}"
					],
					"path": [
						"api",
						"tags",
						"6"
					]
				}
			},
			"response": []
		},
		{
			"name": "posts by lang - index",
			"request": {
				"method": "GET",
				"header": [],
				"url": {
					"raw": "{{host}}/api/posts/ru",
					"host": [
						"{{host}}"
					],
					"path": [
						"api",
						"posts",
						"ru"
					]
				}
			},
			"response": []
		},
		{
			"name": "posts by lang - show",
			"request": {
				"method": "GET",
				"header": [],
				"url": {
					"raw": "{{host}}/api/posts/ru/100",
					"host": [
						"{{host}}"
					],
					"path": [
						"api",
						"posts",
						"ru",
						"100"
					]
				}
			},
			"response": []
		},
		{
			"name": "posts by lang - store",
			"request": {
				"method": "POST",
				"header": [],
				"body": {
					"mode": "raw",
					"raw": "{\n    \"post_id\": 100,\n    \"title\": \"new title\",\n    \"description\": \"new description\",\n    \"content\": \"new content\"\n}",
					"options": {
						"raw": {
							"language": "json"
						}
					}
				},
				"url": {
					"raw": "{{host}}/api/posts/ru?XDEBUG_SESSION_START=PHPSTORM",
					"host": [
						"{{host}}"
					],
					"path": [
						"api",
						"posts",
						"ru"
					],
					"query": [
						{
							"key": "XDEBUG_SESSION_START",
							"value": "PHPSTORM"
						}
					]
				}
			},
			"response": []
		},
		{
			"name": "posts by lang - update",
			"request": {
				"method": "PUT",
				"header": [],
				"body": {
					"mode": "raw",
					"raw": "{\n    \"title\": \"update title\",\n    \"description\": \"update description\",\n    \"content\": \"update content\"\n}",
					"options": {
						"raw": {
							"language": "json"
						}
					}
				},
				"url": {
					"raw": "{{host}}/api/posts/ru/100",
					"host": [
						"{{host}}"
					],
					"path": [
						"api",
						"posts",
						"ru",
						"100"
					]
				}
			},
			"response": []
		},
		{
			"name": "posts by lang - destroy",
			"request": {
				"method": "DELETE",
				"header": [],
				"body": {
					"mode": "raw",
					"raw": "",
					"options": {
						"raw": {
							"language": "json"
						}
					}
				},
				"url": {
					"raw": "{{host}}/api/posts/ru/100",
					"host": [
						"{{host}}"
					],
					"path": [
						"api",
						"posts",
						"ru",
						"100"
					]
				}
			},
			"response": []
		},
		{
			"name": "posts by lang - set tags",
			"request": {
				"method": "POST",
				"header": [],
				"body": {
					"mode": "raw",
					"raw": "{\n    \"tags\": [\"science\", \"hot\", \"new tag\"]\n}",
					"options": {
						"raw": {
							"language": "json"
						}
					}
				},
				"url": {
					"raw": "{{host}}/api/posts/ru/tags/100/?XDEBUG_SESSION_START=PHPSTORM",
					"host": [
						"{{host}}"
					],
					"path": [
						"api",
						"posts",
						"ru",
						"tags",
						"100",
						""
					],
					"query": [
						{
							"key": "XDEBUG_SESSION_START",
							"value": "PHPSTORM"
						}
					]
				}
			},
			"response": []
		}
	]
}